# Blender v2.79 (sub 0) OBJ File: 'material_export.blend'
# www.blender.org
o Plane
v -12.500000 -1.000000 16.014124
v 12.500000 -1.000000 16.014124
v -12.500000 -1.000000 -8.985876
v 12.500000 -1.000000 -8.985876
vn 0.0000 1.0000 0.0000
s off
f 2//1 3//1 1//1
f 2//1 4//1 3//1
