  omp_get_max_threads()*2 = 2
LOAD LIBNEURAY.SO OK 
  0.0   API    misc info : Loaded "/home/adufay/iray/linux-x86-64/lib/libneuray.so"
  0.0   API    misc info : Iray 2017.1, build 296300.2288, 27 Sep 2017, linux-x86-64-gcc4
  0.0   PLUG   plug info : Loaded library "/home/adufay/iray/linux-x86-64/lib/nv_freeimage.so".
  0.0   PLUG   plug info : Loaded library "/home/adufay/iray/linux-x86-64/lib/libiray.so".
  0.0   PLUG   plug info : Loaded library "/home/adufay/iray/linux-x86-64/lib/mi_importer.so".
  0.1   CUDA   rend info : Found 2 CUDA devices.
  0.1   CLUSTR net  info : Networking is switched off.
  1.1   FREIMG img  info : Plugin "fi_bmp" (build 296300.2288, 27 Sep 2017) initialized
  1.1   FREIMG img  info : Plugin "fi_cut" (build 296300.2288, 27 Sep 2017) initialized
  1.1   FREIMG img  info : Plugin "fi_dds" (build 296300.2288, 27 Sep 2017) initialized
  1.1   FREIMG img  info : Plugin "fi_exr" (build 296300.2288, 27 Sep 2017) initialized
  1.1   FREIMG img  info : Plugin "fi_faxg3" (build 296300.2288, 27 Sep 2017) initialized
  1.1   FREIMG img  info : Plugin "fi_gif" (build 296300.2288, 27 Sep 2017) initialized
  1.1   FREIMG img  info : Plugin "fi_hdr" (build 296300.2288, 27 Sep 2017) initialized
  1.1   FREIMG img  info : Plugin "fi_ico" (build 296300.2288, 27 Sep 2017) initialized
  1.1   FREIMG img  info : Plugin "fi_j2k" (build 296300.2288, 27 Sep 2017) initialized
  1.1   FREIMG img  info : Plugin "fi_jng" (build 296300.2288, 27 Sep 2017) initialized
  1.1   FREIMG img  info : Plugin "fi_jp2" (build 296300.2288, 27 Sep 2017) initialized
  1.1   FREIMG img  info : Plugin "fi_jpg" (build 296300.2288, 27 Sep 2017) initialized
  1.1   FREIMG img  info : Plugin "fi_koala" (build 296300.2288, 27 Sep 2017) initialized
  1.1   FREIMG img  info : Plugin "fi_lbm" (build 296300.2288, 27 Sep 2017) initialized
  1.1   FREIMG img  info : Plugin "fi_pbm" (build 296300.2288, 27 Sep 2017) initialized
  1.1   FREIMG img  info : Plugin "fi_pcd" (build 296300.2288, 27 Sep 2017) initialized
  1.1   FREIMG img  info : Plugin "fi_pcx" (build 296300.2288, 27 Sep 2017) initialized
  1.1   FREIMG img  info : Plugin "fi_pfm" (build 296300.2288, 27 Sep 2017) initialized
  1.1   FREIMG img  info : Plugin "fi_pict" (build 296300.2288, 27 Sep 2017) initialized
  1.1   FREIMG img  info : Plugin "fi_png" (build 296300.2288, 27 Sep 2017) initialized
  1.1   FREIMG img  info : Plugin "fi_psd" (build 296300.2288, 27 Sep 2017) initialized
  1.1   FREIMG img  info : Plugin "fi_ras" (build 296300.2288, 27 Sep 2017) initialized
  1.1   FREIMG img  info : Plugin "fi_sgi" (build 296300.2288, 27 Sep 2017) initialized
  1.1   FREIMG img  info : Plugin "fi_targa" (build 296300.2288, 27 Sep 2017) initialized
  1.1   FREIMG img  info : Plugin "fi_tiff" (build 296300.2288, 27 Sep 2017) initialized
  1.1   FREIMG img  info : Plugin "fi_wbmp" (build 296300.2288, 27 Sep 2017) initialized
  1.1   FREIMG img  info : Plugin "fi_xpm" (build 296300.2288, 27 Sep 2017) initialized
  1.1   IRAY   rend info : Your NVIDIA driver supports CUDA version up to 9.0; iray requires CUDA version 9.0; all is good.
  1.1   IRAY   rend info : Using iray plugin version 4.7, build 296300.2288 n, 27 Sep 2017, linux-x86-64-gcc4.
  1.1   IRAY   rend info : CUDA device 0 (Tesla P100-PCIE-16GB): compute capability 6.0, 15.8948 GiB total, 15.6536 GiB available
  1.1   IRAY   rend warn : CUDA device 0 (Tesla P100-PCIE-16GB): ECC is enabled, this affects performance negatively (it is recommended to disable ECC with iray)
  1.1   IRAY   rend info : CUDA device 1 (Tesla P100-PCIE-16GB): compute capability 6.0, 15.8948 GiB total, 15.6536 GiB available
  1.1   IRAY   rend warn : CUDA device 1 (Tesla P100-PCIE-16GB): ECC is enabled, this affects performance negatively (it is recommended to disable ECC with iray)
  1.1   IRAY   rend info : iray photoreal CPU fallback is enabled.
  1.1   IRAY   rend stat : Environment cache size capacity: 5.
  1.1   EIMI   io   info : Plugin ".mi importer" (build 296300.2288, 27 Sep 2017) initialized
  1.0   SCENE  io   info : Loading module "::nvidia::core_definitions" from "/home/adufay/iray/mdl/nvidia/core_definitions.mdl".
  1.0   SCENE  io   info : Loading module "::main" from "/home/adufay/apps/iray renderer/../../mdl/main.mdl".
  1.0   MDLC   comp warn : The file path 'wells6_hd.hdr' is only found via the resource search paths, not via the module search paths. This is deprecated.
  1.0   IMAGE  io   info : Loading image "/home/adufay/apps/iray renderer/../../assets/envmaps/wells6_hd.hdr", pixel type "Rgb_fp", 1000x500x1 pixels, 1 miplevel.
  1.0   SCENE  io   info : Loading module "::mrf_lights" from "/home/adufay/apps/iray renderer/../../mdl/mrf_lights.mdl".
 OBJ Scene 
 { Nb vertices: 0 Nb Normals: 0 Nb Texture Coordinates: 0 Nb Materials: 0 Number of named objects: 0 Number of faces: 0
 The scene has 0 non-triangular faces. 
 Number of faces from materials:  0
 } 

 OBJ Scene 
 { Nb vertices: 0 Nb Normals: 0 Nb Texture Coordinates: 0 Nb Materials: 0 Number of named objects: 0 Number of faces: 0
 The scene has 0 non-triangular faces. 
 Number of faces from materials:  0
 } 

[INFO] Linearization of the OBJ File completed 
[INFO]  Positions size: 0 Normals size: 0 Uvs size: 0
[INFO]  Faces size: 0 which is equivalent to 0 triangles. 
[INFO] Material per faces size = 0 Materials size: 0 Material Strides size: 0
[INFO] Number of normals required: 0
[INFO] Number of normals recomputed:0
 [INFO] COMPUTING INTIAL TANGENTS FROM NORMALS 
[INFO] Checking Normal and Tangent Orthogonality in Mesh.cxx 
 OBJ Scene 
 { Nb vertices: 0 Nb Normals: 0 Nb Texture Coordinates: 0 Nb Materials: 0 Number of named objects: 0 Number of faces: 0
 The scene has 0 non-triangular faces. 
 Number of faces from materials:  0
 } 

 OBJ Scene 
 { Nb vertices: 0 Nb Normals: 0 Nb Texture Coordinates: 0 Nb Materials: 0 Number of named objects: 0 Number of faces: 0
 The scene has 0 non-triangular faces. 
 Number of faces from materials:  0
 } 

[INFO] Linearization of the OBJ File completed 
[INFO]  Positions size: 0 Normals size: 0 Uvs size: 0
[INFO]  Faces size: 0 which is equivalent to 0 triangles. 
[INFO] Material per faces size = 0 Materials size: 0 Material Strides size: 0
[INFO] Number of normals required: 0
[INFO] Number of normals recomputed:0
 [INFO] COMPUTING INTIAL TANGENTS FROM NORMALS 
[INFO] Checking Normal and Tangent Orthogonality in Mesh.cxx 
 OBJ Scene 
 { Nb vertices: 4 Nb Normals: 1 Nb Texture Coordinates: 0 Nb Materials: 0 Number of named objects: 1 Number of faces: 2
 The scene has 0 non-triangular faces. 
 Number of faces from materials:  0
 } 

 OBJ Scene 
 { Nb vertices: 4 Nb Normals: 1 Nb Texture Coordinates: 0 Nb Materials: 0 Number of named objects: 1 Number of faces: 2
 The scene has 0 non-triangular faces. 
 Number of faces from materials:  0
 } 

[INFO] Linearization of the OBJ File completed 
[INFO]  Positions size: 4 Normals size: 4 Uvs size: 4
[INFO]  Faces size: 6 which is equivalent to 2 triangles. 
[INFO] Material per faces size = 0 Materials size: 0 Material Strides size: 0
[INFO] Number of normals required: 4
[INFO] Number of normals recomputed:0
 [INFO] COMPUTING INTIAL TANGENTS FROM NORMALS 
[INFO] Checking Normal and Tangent Orthogonality in Mesh.cxx 
 [WARN] 4/4 invalid normals detected and corrected 
 [WARN] 4/4 invalid tangents detected and corrected 
 OBJ Scene 
 { Nb vertices: 4 Nb Normals: 1 Nb Texture Coordinates: 0 Nb Materials: 0 Number of named objects: 1 Number of faces: 2
 The scene has 0 non-triangular faces. 
 Number of faces from materials:  0
 } 

 OBJ Scene 
 { Nb vertices: 4 Nb Normals: 1 Nb Texture Coordinates: 0 Nb Materials: 0 Number of named objects: 1 Number of faces: 2
 The scene has 0 non-triangular faces. 
 Number of faces from materials:  0
 } 

[INFO] Linearization of the OBJ File completed 
[INFO]  Positions size: 4 Normals size: 4 Uvs size: 4
[INFO]  Faces size: 6 which is equivalent to 2 triangles. 
[INFO] Material per faces size = 0 Materials size: 0 Material Strides size: 0
[INFO] Number of normals required: 4
[INFO] Number of normals recomputed:0
 [INFO] COMPUTING INTIAL TANGENTS FROM NORMALS 
[INFO] Checking Normal and Tangent Orthogonality in Mesh.cxx 
 [WARN] 4/4 invalid normals detected and corrected 
 [WARN] 4/4 invalid tangents detected and corrected 
 OBJ Scene 
 { Nb vertices: 258 Nb Normals: 98 Nb Texture Coordinates: 0 Nb Materials: 0 Number of named objects: 1 Number of faces: 512
 The scene has 0 non-triangular faces. 
 Number of faces from materials:  0
 } 

 OBJ Scene 
 { Nb vertices: 258 Nb Normals: 98 Nb Texture Coordinates: 0 Nb Materials: 0 Number of named objects: 1 Number of faces: 512
 The scene has 0 non-triangular faces. 
 Number of faces from materials:  0
 } 

[INFO] Linearization of the OBJ File completed 
[INFO]  Positions size: 258 Normals size: 258 Uvs size: 258
[INFO]  Faces size: 1536 which is equivalent to 512 triangles. 
[INFO] Material per faces size = 0 Materials size: 0 Material Strides size: 0
[INFO] Number of normals required: 258
[INFO] Number of normals recomputed:0
 [INFO] COMPUTING INTIAL TANGENTS FROM NORMALS 
[INFO] Checking Normal and Tangent Orthogonality in Mesh.cxx 
 [WARN] 144/258 invalid normals detected and corrected 
 [WARN] 132/258 invalid tangents detected and corrected 
 OBJ Scene 
 { Nb vertices: 2704 Nb Normals: 2704 Nb Texture Coordinates: 0 Nb Materials: 0 Number of named objects: 1 Number of faces: 5202
 The scene has 0 non-triangular faces. 
 Number of faces from materials:  0
 } 

 OBJ Scene 
 { Nb vertices: 2704 Nb Normals: 2704 Nb Texture Coordinates: 0 Nb Materials: 0 Number of named objects: 1 Number of faces: 5202
 The scene has 0 non-triangular faces. 
 Number of faces from materials:  0
 } 

[INFO] Linearization of the OBJ File completed 
[INFO]  Positions size: 2704 Normals size: 2704 Uvs size: 2704
[INFO]  Faces size: 15606 which is equivalent to 5202 triangles. 
[INFO] Material per faces size = 0 Materials size: 0 Material Strides size: 0
[INFO] Number of normals required: 2704
[INFO] Number of normals recomputed:0
 [INFO] COMPUTING INTIAL TANGENTS FROM NORMALS 
[INFO] Checking Normal and Tangent Orthogonality in Mesh.cxx 
 [WARN] 2150/2704 invalid normals detected and corrected 
 [WARN] 1450/2704 invalid tangents detected and corrected 
 OBJ Scene 
 { Nb vertices: 4 Nb Normals: 1 Nb Texture Coordinates: 0 Nb Materials: 0 Number of named objects: 1 Number of faces: 2
 The scene has 0 non-triangular faces. 
 Number of faces from materials:  0
 } 

 OBJ Scene 
 { Nb vertices: 4 Nb Normals: 1 Nb Texture Coordinates: 0 Nb Materials: 0 Number of named objects: 1 Number of faces: 2
 The scene has 0 non-triangular faces. 
 Number of faces from materials:  0
 } 

[INFO] Linearization of the OBJ File completed 
[INFO]  Positions size: 4 Normals size: 4 Uvs size: 4
[INFO]  Faces size: 6 which is equivalent to 2 triangles. 
[INFO] Material per faces size = 0 Materials size: 0 Material Strides size: 0
[INFO] Number of normals required: 4
[INFO] Number of normals recomputed:0
 [INFO] COMPUTING INTIAL TANGENTS FROM NORMALS 
[INFO] Checking Normal and Tangent Orthogonality in Mesh.cxx 
 OBJ Scene 
 { Nb vertices: 0 Nb Normals: 0 Nb Texture Coordinates: 0 Nb Materials: 0 Number of named objects: 0 Number of faces: 0
 The scene has 0 non-triangular faces. 
 Number of faces from materials:  0
 } 

 OBJ Scene 
 { Nb vertices: 0 Nb Normals: 0 Nb Texture Coordinates: 0 Nb Materials: 0 Number of named objects: 0 Number of faces: 0
 The scene has 0 non-triangular faces. 
 Number of faces from materials:  0
 } 

[INFO] Linearization of the OBJ File completed 
[INFO]  Positions size: 0 Normals size: 0 Uvs size: 0
[INFO]  Faces size: 0 which is equivalent to 0 triangles. 
[INFO] Material per faces size = 0 Materials size: 0 Material Strides size: 0
[INFO] Number of normals required: 0
[INFO] Number of normals recomputed:0
 [INFO] COMPUTING INTIAL TANGENTS FROM NORMALS 
[INFO] Checking Normal and Tangent Orthogonality in Mesh.cxx 
 OBJ Scene 
 { Nb vertices: 482 Nb Normals: 482 Nb Texture Coordinates: 0 Nb Materials: 0 Number of named objects: 1 Number of faces: 960
 The scene has 0 non-triangular faces. 
 Number of faces from materials:  0
 } 

 OBJ Scene 
 { Nb vertices: 482 Nb Normals: 482 Nb Texture Coordinates: 0 Nb Materials: 0 Number of named objects: 1 Number of faces: 960
 The scene has 0 non-triangular faces. 
 Number of faces from materials:  0
 } 

[INFO] Linearization of the OBJ File completed 
[INFO]  Positions size: 482 Normals size: 482 Uvs size: 482
[INFO]  Faces size: 2880 which is equivalent to 960 triangles. 
[INFO] Material per faces size = 0 Materials size: 0 Material Strides size: 0
[INFO] Number of normals required: 482
[INFO] Number of normals recomputed:0
 [INFO] COMPUTING INTIAL TANGENTS FROM NORMALS 
[INFO] Checking Normal and Tangent Orthogonality in Mesh.cxx 
 [WARN] 339/482 invalid normals detected and corrected 
 [WARN] 384/482 invalid tangents detected and corrected 
 OBJ Scene 
 { Nb vertices: 0 Nb Normals: 0 Nb Texture Coordinates: 0 Nb Materials: 0 Number of named objects: 0 Number of faces: 0
 The scene has 0 non-triangular faces. 
 Number of faces from materials:  0
 } 

 OBJ Scene 
 { Nb vertices: 0 Nb Normals: 0 Nb Texture Coordinates: 0 Nb Materials: 0 Number of named objects: 0 Number of faces: 0
 The scene has 0 non-triangular faces. 
 Number of faces from materials:  0
 } 

[INFO] Linearization of the OBJ File completed 
[INFO]  Positions size: 0 Normals size: 0 Uvs size: 0
[INFO]  Faces size: 0 which is equivalent to 0 triangles. 
[INFO] Material per faces size = 0 Materials size: 0 Material Strides size: 0
[INFO] Number of normals required: 0
[INFO] Number of normals recomputed:0
 [INFO] COMPUTING INTIAL TANGENTS FROM NORMALS 
[INFO] Checking Normal and Tangent Orthogonality in Mesh.cxx 
 OBJ Scene 
 { Nb vertices: 0 Nb Normals: 0 Nb Texture Coordinates: 0 Nb Materials: 0 Number of named objects: 0 Number of faces: 0
 The scene has 0 non-triangular faces. 
 Number of faces from materials:  0
 } 

 OBJ Scene 
 { Nb vertices: 0 Nb Normals: 0 Nb Texture Coordinates: 0 Nb Materials: 0 Number of named objects: 0 Number of faces: 0
 The scene has 0 non-triangular faces. 
 Number of faces from materials:  0
 } 

[INFO] Linearization of the OBJ File completed 
[INFO]  Positions size: 0 Normals size: 0 Uvs size: 0
[INFO]  Faces size: 0 which is equivalent to 0 triangles. 
[INFO] Material per faces size = 0 Materials size: 0 Material Strides size: 0
[INFO] Number of normals required: 0
[INFO] Number of normals recomputed:0
 [INFO] COMPUTING INTIAL TANGENTS FROM NORMALS 
[INFO] Checking Normal and Tangent Orthogonality in Mesh.cxx 
 OBJ Scene 
 { Nb vertices: 0 Nb Normals: 0 Nb Texture Coordinates: 0 Nb Materials: 0 Number of named objects: 0 Number of faces: 0
 The scene has 0 non-triangular faces. 
 Number of faces from materials:  0
 } 

 OBJ Scene 
 { Nb vertices: 0 Nb Normals: 0 Nb Texture Coordinates: 0 Nb Materials: 0 Number of named objects: 0 Number of faces: 0
 The scene has 0 non-triangular faces. 
 Number of faces from materials:  0
 } 

[INFO] Linearization of the OBJ File completed 
[INFO]  Positions size: 0 Normals size: 0 Uvs size: 0
[INFO]  Faces size: 0 which is equivalent to 0 triangles. 
[INFO] Material per faces size = 0 Materials size: 0 Material Strides size: 0
[INFO] Number of normals required: 0
[INFO] Number of normals recomputed:0
 [INFO] COMPUTING INTIAL TANGENTS FROM NORMALS 
[INFO] Checking Normal and Tangent Orthogonality in Mesh.cxx 
 OBJ Scene 
 { Nb vertices: 4 Nb Normals: 1 Nb Texture Coordinates: 0 Nb Materials: 0 Number of named objects: 1 Number of faces: 2
 The scene has 0 non-triangular faces. 
 Number of faces from materials:  0
 } 

 OBJ Scene 
 { Nb vertices: 4 Nb Normals: 1 Nb Texture Coordinates: 0 Nb Materials: 0 Number of named objects: 1 Number of faces: 2
 The scene has 0 non-triangular faces. 
 Number of faces from materials:  0
 } 

[INFO] Linearization of the OBJ File completed 
[INFO]  Positions size: 4 Normals size: 4 Uvs size: 4
[INFO]  Faces size: 6 which is equivalent to 2 triangles. 
[INFO] Material per faces size = 0 Materials size: 0 Material Strides size: 0
[INFO] Number of normals required: 4
[INFO] Number of normals recomputed:0
 [INFO] COMPUTING INTIAL TANGENTS FROM NORMALS 
[INFO] Checking Normal and Tangent Orthogonality in Mesh.cxx 
 ************************ INFO ************************** 
  Time to load scene  :0.130162 seconds 
 ******************************************************** 

 INSIDE /home/adufay/apps/iray renderer/../../mrf/rendering/thin_lens_camera.hpp 201
 _sensor Distance = 0.0362694
 Right Axis =  [ 1; 1.65691e-17; -2.92156e-18 ]   Up =  [ -1.68247e-17; 0.984808; -0.173648 ]   Normalized Optical Axis =  [ 0; -0.173648; -0.984808 ] 
Color background not yet supported in IRAY BACKEND
Option 0 scheduler_mode String = batch
Option 1 min_samples_per_update Uint32 = 1
Option 2 batch_update_interval Float32 = 1e+36
Option 3 interactive_update_interval Float32 = 0.0166667
Option 4 ui_responsiveness Float32 = 0.166667
  1.0   IRAY   rend info : Updating geometry.
  1.0   IRAY   rend info : Using OptiX Prime ray tracing (3.9.2).
  1.0   IRAY   rend info : Importing scene graph.
  1.0   IRAY   rend info : Importing geometry for motion time 0
  1.0   IRAY   rend info : Geometry import (1 object with 6682 triangles, 1 instance yielding 6682 triangles) took 0.000862
  1.0   IRAY   rend info : Updating materials.
  1.0   MATCNV rend info : found 1 textures, 0 lambdas (0 unique)
  1.0   IRAY   rend info : Emitter geometry import (4 light sources with 8 triangles, 1 instance) took 0.00s
  1.0   IRAY   rend info : Updating environment.
  1.0   IRAY   rend info : Updating backplate.
  1.0   IRAY   rend info : Updating lens.
  1.0   IRAY   rend info : Updating lights.
  1.0   IRAY   rend info : Updating object flags.
  1.0   IRAY   rend info : Updating caustic portals.
  1.0   IRAY   rend info : Updating decals.
  1.0   IRAY   rend info : Allocating 1-layer frame buffer
  1.0   IRAY   rend info : Using batch scheduling, caustic sampler disabled
  1.0   IRAY   rend info : Initializing local rendering.
  1.0   IRAY   rend info : CPU: using 30 cores for rendering
  1.0   IRAY   rend info : Rendering with 3 device(s):
  1.0   IRAY   rend info : 	CUDA device 0 (Tesla P100-PCIE-16GB)
  1.0   IRAY   rend info : 	CUDA device 1 (Tesla P100-PCIE-16GB)
  1.0   IRAY   rend info : 	CPU
  1.0   IRAY   rend info : Rendering...
  1.10  IRAY   rend progr: CUDA device 0 (Tesla P100-PCIE-16GB): Processing scene...
  1.5   IRAY   rend stat : Geometry memory consumption: 187.344 KiB (device 0), 0 B (host)
  1.5   IRAY   rend stat : Texture memory consumption: 0 B for 0 bitmaps (device 0)
  1.5   IRAY   rend info : Importing lights for motion time 0
  1.5   IRAY   rend info : Initializing light hierarchy.
  1.9   IRAY   rend progr: CUDA device 1 (Tesla P100-PCIE-16GB): Processing scene...
  1.6   IRAY   rend stat : Geometry memory consumption: 187.344 KiB (device 1), 0 B (host)
  1.5   IRAY   rend info : Light hierarchy initialization took 0.00s
  1.32  IRAY   rend progr: CPU: Processing scene...
  1.12  IRAY   rend info : Using device 0 to build data for host
  1.5   IRAY   rend stat : Lights memory consumption: 3.31641 KiB (device 0)
  1.5   IRAY   rend stat : Material measurement memory consumption: 0 B (GPU)
  1.12  IRAY   rend stat : Native CPU code generated in 1.81e-05s
  1.5   IRAY   rend stat : Materials memory consumption: 28.4414 KiB (GPU)
  1.6   IRAY   rend stat : Texture memory consumption: 0 B for 0 bitmaps (device 1)
  1.6   IRAY   rend stat : Lights memory consumption: 3.31641 KiB (device 1)
  1.32  IRAY   rend info : CPU: Scene processed in 0.017s
  1.32  IRAY   rend info : CPU: Allocated 17.5783 MiB for frame buffer
  1.9   IRAY   rend info : CUDA device 1 (Tesla P100-PCIE-16GB): Scene processed in 0.052s
  1.9   IRAY   rend info : CUDA device 1 (Tesla P100-PCIE-16GB): Allocated 17.5783 MiB for frame buffer
  1.9   IRAY   rend info : CUDA device 1 (Tesla P100-PCIE-16GB): Allocated 1.6875 GiB of work space (2048k active samples in 0.003s)
  1.10  IRAY   rend info : CUDA device 0 (Tesla P100-PCIE-16GB): Scene processed in 0.073s
  1.10  IRAY   rend info : CUDA device 0 (Tesla P100-PCIE-16GB): Allocated 17.5783 MiB for frame buffer
  1.10  IRAY   rend info : CUDA device 0 (Tesla P100-PCIE-16GB): Allocated 1.6875 GiB of work space (2048k active samples in 0.003s)
  1.9   IRAY   rend info : Allocating 1-layer frame buffer
  1.0   IRAY   rend info : Received update to 00001 iterations after 0.246s.
  1.0   IRAY   rend info : Received update to 00002 iterations after 0.319s.
  1.0   IRAY   rend info : Received update to 00003 iterations after 0.381s.
  1.0   IRAY   rend info : Received update to 00004 iterations after 0.429s.
  1.0   IRAY   rend info : Received update to 00006 iterations after 0.527s.
  1.0   IRAY   rend info : Received update to 00008 iterations after 0.631s.
  1.0   IRAY   rend info : Received update to 00009 iterations after 0.701s.
  1.0   IRAY   rend info : Received update to 00013 iterations after 0.828s.
  1.0   IRAY   rend info : Received update to 00017 iterations after 0.906s.
  1.0   IRAY   rend info : Received update to 00018 iterations after 1.248s.
  1.0   IRAY   rend info : Received update to 00026 iterations after 1.441s.
  1.0   IRAY   rend info : Received update to 00034 iterations after 1.486s.
  1.0   IRAY   rend info : Received update to 00036 iterations after 2.286s.
  1.0   IRAY   rend info : Received update to 00052 iterations after 2.592s.
  1.0   IRAY   rend info : Received update to 00068 iterations after 2.702s.
  1.0   IRAY   rend info : Received update to 00072 iterations after 4.394s.
  1.0   IRAY   rend info : Received update to 00104 iterations after 4.460s.
  1.0   IRAY   rend info : Received update to 00136 iterations after 4.763s.
  1.0   IRAY   rend info : Received update to 00144 iterations after 8.609s.
  1.0   IRAY   rend info : Received update to 00208 iterations after 9.115s.
  1.0   IRAY   rend info : Received update to 00336 iterations after 16.450s.
  1.0   IRAY   rend info : Received update to 00528 iterations after 19.550s.
  1.0   IRAY   rend info : Received update to 00576 iterations after 33.574s.
  1.0   IRAY   rend info : Received update to 00832 iterations after 34.408s.
  1.0   IRAY   rend info : Received update to 01088 iterations after 36.522s.
  1.0   IRAY   rend info : Received update to 01152 iterations after 66.645s.
  1.0   IRAY   rend info : Received update to 01664 iterations after 73.203s.
  1.0   IRAY   rend info : Received update to 02176 iterations after 74.274s.
  1.0   IRAY   rend info : Received update to 02949 iterations after 122.958s.
  1.0   IRAY   rend info : Received update to 03059 iterations after 124.439s.
  1.0   IRAY   rend info : Received update to 03884 iterations after 132.172s.
  1.0   IRAY   rend info : Received update to 03972 iterations after 170.432s.
  1.0   IRAY   rend info : Received update to 04727 iterations after 173.993s.
  1.0   IRAY   rend info : Received update to 05363 iterations after 179.554s.
  1.0   IRAY   rend info : Received update to 05439 iterations after 209.925s.
  1.0   IRAY   rend info : Received update to 06021 iterations after 214.359s.
  1.0   IRAY   rend info : Received update to 06495 iterations after 218.095s.
  1.0   IRAY   rend info : Received update to 06553 iterations after 240.016s.
  1.0   IRAY   rend info : Received update to 06990 iterations after 245.287s.
  1.0   IRAY   rend info : Received update to 07332 iterations after 246.116s.
  1.0   IRAY   rend info : Received update to 07585 iterations after 261.638s.
  1.0   IRAY   rend info : Received update to 07629 iterations after 263.091s.
  1.0   IRAY   rend info : Received update to 07958 iterations after 271.434s.
  1.0   IRAY   rend info : Received update to 07988 iterations after 278.572s.
  1.0   IRAY   rend info : Received update to 08239 iterations after 282.602s.
  1.0   IRAY   rend info : Received update to 08451 iterations after 284.467s.
  1.0   IRAY   rend info : Received update to 08477 iterations after 292.285s.
  1.0   IRAY   rend info : Received update to 08652 iterations after 293.324s.
  1.0   IRAY   rend info : Received update to 08825 iterations after 297.481s.
  1.0   IRAY   rend info : Received update to 08844 iterations after 302.167s.
  1.0   IRAY   rend info : Received update to 08969 iterations after 305.215s.
  1.0   IRAY   rend info : Received update to 09116 iterations after 305.272s.
  1.0   IRAY   rend info : Received update to 09131 iterations after 310.056s.
  1.0   IRAY   rend info : Received update to 09246 iterations after 312.590s.
  1.0   IRAY   rend info : Received update to 09337 iterations after 312.706s.
  1.0   IRAY   rend info : Received update to 09348 iterations after 315.861s.
  1.0   IRAY   rend info : Received update to 09412 iterations after 317.045s.
  1.0   IRAY   rend info : Received update to 09500 iterations after 318.098s.
  1.0   IRAY   rend info : Received update to 09508 iterations after 320.058s.
  1.0   IRAY   rend info : Received update to 09567 iterations after 321.854s.
  1.0   IRAY   rend info : Received update to 09628 iterations after 322.992s.
  1.0   IRAY   rend info : Received update to 09634 iterations after 323.187s.
  1.0   IRAY   rend info : Received update to 09638 iterations after 325.304s.
  1.0   IRAY   rend info : Received update to 09680 iterations after 325.313s.
  1.0   IRAY   rend info : Received update to 09720 iterations after 325.451s.
  1.0   IRAY   rend info : Received update to 09724 iterations after 327.391s.
  1.0   IRAY   rend info : Received update to 09754 iterations after 327.738s.
  1.0   IRAY   rend info : Received update to 09786 iterations after 327.802s.
  1.0   IRAY   rend info : Received update to 09789 iterations after 329.003s.
  1.0   IRAY   rend info : Received update to 09812 iterations after 329.165s.
  1.0   IRAY   rend info : Received update to 09835 iterations after 329.245s.
  1.0   IRAY   rend info : Received update to 09837 iterations after 330.082s.
  1.0   IRAY   rend info : Received update to 09856 iterations after 330.512s.
  1.0   IRAY   rend info : Received update to 09875 iterations after 330.556s.
  1.0   IRAY   rend info : Received update to 09877 iterations after 331.169s.
  1.0   IRAY   rend info : Received update to 09890 iterations after 331.515s.
  1.0   IRAY   rend info : Received update to 09906 iterations after 331.641s.
  1.0   IRAY   rend info : Received update to 09907 iterations after 331.704s.
  1.0   IRAY   rend info : Received update to 09908 iterations after 332.234s.
  1.0   IRAY   rend info : Received update to 09921 iterations after 332.369s.
  1.0   IRAY   rend info : Received update to 09936 iterations after 332.793s.
  1.0   IRAY   rend info : Received update to 09950 iterations after 333.291s.
  1.0   IRAY   rend info : Received update to 09951 iterations after 333.329s.
  1.0   IRAY   rend info : Received update to 09964 iterations after 333.658s.
  1.0   IRAY   rend info : Received update to 09965 iterations after 333.886s.
  1.0   IRAY   rend info : Received update to 09979 iterations after 334.177s.
  1.0   IRAY   rend info : Received update to 09980 iterations after 334.410s.
  1.0   IRAY   rend info : Received update to 09986 iterations after 334.595s.
  1.0   IRAY   rend info : Received update to 10000 iterations after 334.687s.
  1.0   IRAY   rend info : Maximum number of samples reached.
  1.0   IRAY   rend info : Rendering...
  1.0   IRAY   rend info : Received update to 10000 iterations after 334.695s.
  1.0   IRAY   rend info : Maximum number of samples reached.
Try to save Image in:clothe_10_4.png
  1.0   IMAGE  io   info : Saving image "clothe_10_4.png", pixel type "Rgba_16", 1280x720x1 pixels, 1 miplevel.
Try to save Image in:clothe_10_4.exr
  1.0   IMAGE  io   info : Saving image "clothe_10_4.exr", pixel type "Color", 1280x720x1 pixels, 1 miplevel.
  1.0   IRAY   rend info : Device statistics:
  1.0   IRAY   rend info : CUDA device 0 (Tesla P100-PCIE-16GB): 	 4515 iterations, 0.300s init, 334.343s render
  1.0   IRAY   rend info : CUDA device 1 (Tesla P100-PCIE-16GB): 	 4845 iterations, 0.121s init, 334.571s render
  1.0   IRAY   rend info : CPU: 	 640 iterations, 0.046s init, 334.365s render
  1.0   API    db   warn : Transaction is released without being committed or aborted. Automatically aborting.
srun: error: sirocco08: task 0: Segmentation fault (core dumped)
