  omp_get_max_threads()*2 = 2
LOAD LIBNEURAY.SO OK 
  0.0   API    misc info : Loaded "/home/adufay/iray/linux-x86-64/lib/libneuray.so"
  0.0   API    misc info : Iray 2017.1, build 296300.2288, 27 Sep 2017, linux-x86-64-gcc4
  0.0   PLUG   plug info : Loaded library "/home/adufay/iray/linux-x86-64/lib/nv_freeimage.so".
  0.0   PLUG   plug info : Loaded library "/home/adufay/iray/linux-x86-64/lib/libiray.so".
  0.0   PLUG   plug info : Loaded library "/home/adufay/iray/linux-x86-64/lib/mi_importer.so".
  0.1   CUDA   rend info : Found 2 CUDA devices.
  0.1   CLUSTR net  info : Networking is switched off.
  1.1   FREIMG img  info : Plugin "fi_bmp" (build 296300.2288, 27 Sep 2017) initialized
  1.1   FREIMG img  info : Plugin "fi_cut" (build 296300.2288, 27 Sep 2017) initialized
  1.1   FREIMG img  info : Plugin "fi_dds" (build 296300.2288, 27 Sep 2017) initialized
  1.1   FREIMG img  info : Plugin "fi_exr" (build 296300.2288, 27 Sep 2017) initialized
  1.1   FREIMG img  info : Plugin "fi_faxg3" (build 296300.2288, 27 Sep 2017) initialized
  1.1   FREIMG img  info : Plugin "fi_gif" (build 296300.2288, 27 Sep 2017) initialized
  1.1   FREIMG img  info : Plugin "fi_hdr" (build 296300.2288, 27 Sep 2017) initialized
  1.1   FREIMG img  info : Plugin "fi_ico" (build 296300.2288, 27 Sep 2017) initialized
  1.1   FREIMG img  info : Plugin "fi_j2k" (build 296300.2288, 27 Sep 2017) initialized
  1.1   FREIMG img  info : Plugin "fi_jng" (build 296300.2288, 27 Sep 2017) initialized
  1.1   FREIMG img  info : Plugin "fi_jp2" (build 296300.2288, 27 Sep 2017) initialized
  1.1   FREIMG img  info : Plugin "fi_jpg" (build 296300.2288, 27 Sep 2017) initialized
  1.1   FREIMG img  info : Plugin "fi_koala" (build 296300.2288, 27 Sep 2017) initialized
  1.1   FREIMG img  info : Plugin "fi_lbm" (build 296300.2288, 27 Sep 2017) initialized
  1.1   FREIMG img  info : Plugin "fi_pbm" (build 296300.2288, 27 Sep 2017) initialized
  1.1   FREIMG img  info : Plugin "fi_pcd" (build 296300.2288, 27 Sep 2017) initialized
  1.1   FREIMG img  info : Plugin "fi_pcx" (build 296300.2288, 27 Sep 2017) initialized
  1.1   FREIMG img  info : Plugin "fi_pfm" (build 296300.2288, 27 Sep 2017) initialized
  1.1   FREIMG img  info : Plugin "fi_pict" (build 296300.2288, 27 Sep 2017) initialized
  1.1   FREIMG img  info : Plugin "fi_png" (build 296300.2288, 27 Sep 2017) initialized
  1.1   FREIMG img  info : Plugin "fi_psd" (build 296300.2288, 27 Sep 2017) initialized
  1.1   FREIMG img  info : Plugin "fi_ras" (build 296300.2288, 27 Sep 2017) initialized
  1.1   FREIMG img  info : Plugin "fi_sgi" (build 296300.2288, 27 Sep 2017) initialized
  1.1   FREIMG img  info : Plugin "fi_targa" (build 296300.2288, 27 Sep 2017) initialized
  1.1   FREIMG img  info : Plugin "fi_tiff" (build 296300.2288, 27 Sep 2017) initialized
  1.1   FREIMG img  info : Plugin "fi_wbmp" (build 296300.2288, 27 Sep 2017) initialized
  1.1   FREIMG img  info : Plugin "fi_xpm" (build 296300.2288, 27 Sep 2017) initialized
  1.1   IRAY   rend info : Your NVIDIA driver supports CUDA version up to 9.0; iray requires CUDA version 9.0; all is good.
  1.1   IRAY   rend info : Using iray plugin version 4.7, build 296300.2288 n, 27 Sep 2017, linux-x86-64-gcc4.
  1.1   IRAY   rend info : CUDA device 0 (Tesla P100-PCIE-16GB): compute capability 6.0, 15.8948 GiB total, 15.6536 GiB available
  1.1   IRAY   rend warn : CUDA device 0 (Tesla P100-PCIE-16GB): ECC is enabled, this affects performance negatively (it is recommended to disable ECC with iray)
  1.1   IRAY   rend info : CUDA device 1 (Tesla P100-PCIE-16GB): compute capability 6.0, 15.8948 GiB total, 15.6536 GiB available
  1.1   IRAY   rend warn : CUDA device 1 (Tesla P100-PCIE-16GB): ECC is enabled, this affects performance negatively (it is recommended to disable ECC with iray)
  1.1   IRAY   rend info : iray photoreal CPU fallback is enabled.
  1.1   IRAY   rend stat : Environment cache size capacity: 5.
  1.1   EIMI   io   info : Plugin ".mi importer" (build 296300.2288, 27 Sep 2017) initialized
  1.0   SCENE  io   info : Loading module "::nvidia::core_definitions" from "/home/adufay/iray/mdl/nvidia/core_definitions.mdl".
  1.0   SCENE  io   info : Loading module "::main" from "/home/adufay/apps/iray renderer/../../mdl/main.mdl".
  1.0   MDLC   comp warn : The file path 'wells6_hd.hdr' is only found via the resource search paths, not via the module search paths. This is deprecated.
  1.0   IMAGE  io   info : Loading image "/home/adufay/apps/iray renderer/../../assets/envmaps/wells6_hd.hdr", pixel type "Rgb_fp", 1000x500x1 pixels, 1 miplevel.
  1.0   SCENE  io   info : Loading module "::mrf_lights" from "/home/adufay/apps/iray renderer/../../mdl/mrf_lights.mdl".
 OBJ Scene 
 { Nb vertices: 0 Nb Normals: 0 Nb Texture Coordinates: 0 Nb Materials: 0 Number of named objects: 0 Number of faces: 0
 The scene has 0 non-triangular faces. 
 Number of faces from materials:  0
 } 

 OBJ Scene 
 { Nb vertices: 0 Nb Normals: 0 Nb Texture Coordinates: 0 Nb Materials: 0 Number of named objects: 0 Number of faces: 0
 The scene has 0 non-triangular faces. 
 Number of faces from materials:  0
 } 

[INFO] Linearization of the OBJ File completed 
[INFO]  Positions size: 0 Normals size: 0 Uvs size: 0
[INFO]  Faces size: 0 which is equivalent to 0 triangles. 
[INFO] Material per faces size = 0 Materials size: 0 Material Strides size: 0
[INFO] Number of normals required: 0
[INFO] Number of normals recomputed:0
 [INFO] COMPUTING INTIAL TANGENTS FROM NORMALS 
[INFO] Checking Normal and Tangent Orthogonality in Mesh.cxx 
 OBJ Scene 
 { Nb vertices: 0 Nb Normals: 0 Nb Texture Coordinates: 0 Nb Materials: 0 Number of named objects: 0 Number of faces: 0
 The scene has 0 non-triangular faces. 
 Number of faces from materials:  0
 } 

 OBJ Scene 
 { Nb vertices: 0 Nb Normals: 0 Nb Texture Coordinates: 0 Nb Materials: 0 Number of named objects: 0 Number of faces: 0
 The scene has 0 non-triangular faces. 
 Number of faces from materials:  0
 } 

[INFO] Linearization of the OBJ File completed 
[INFO]  Positions size: 0 Normals size: 0 Uvs size: 0
[INFO]  Faces size: 0 which is equivalent to 0 triangles. 
[INFO] Material per faces size = 0 Materials size: 0 Material Strides size: 0
[INFO] Number of normals required: 0
[INFO] Number of normals recomputed:0
 [INFO] COMPUTING INTIAL TANGENTS FROM NORMALS 
[INFO] Checking Normal and Tangent Orthogonality in Mesh.cxx 
 OBJ Scene 
 { Nb vertices: 4 Nb Normals: 1 Nb Texture Coordinates: 0 Nb Materials: 0 Number of named objects: 1 Number of faces: 2
 The scene has 0 non-triangular faces. 
 Number of faces from materials:  0
 } 

 OBJ Scene 
 { Nb vertices: 4 Nb Normals: 1 Nb Texture Coordinates: 0 Nb Materials: 0 Number of named objects: 1 Number of faces: 2
 The scene has 0 non-triangular faces. 
 Number of faces from materials:  0
 } 

[INFO] Linearization of the OBJ File completed 
[INFO]  Positions size: 4 Normals size: 4 Uvs size: 4
[INFO]  Faces size: 6 which is equivalent to 2 triangles. 
[INFO] Material per faces size = 0 Materials size: 0 Material Strides size: 0
[INFO] Number of normals required: 4
[INFO] Number of normals recomputed:0
 [INFO] COMPUTING INTIAL TANGENTS FROM NORMALS 
[INFO] Checking Normal and Tangent Orthogonality in Mesh.cxx 
 [WARN] 4/4 invalid normals detected and corrected 
 [WARN] 4/4 invalid tangents detected and corrected 
 OBJ Scene 
 { Nb vertices: 4 Nb Normals: 1 Nb Texture Coordinates: 0 Nb Materials: 0 Number of named objects: 1 Number of faces: 2
 The scene has 0 non-triangular faces. 
 Number of faces from materials:  0
 } 

 OBJ Scene 
 { Nb vertices: 4 Nb Normals: 1 Nb Texture Coordinates: 0 Nb Materials: 0 Number of named objects: 1 Number of faces: 2
 The scene has 0 non-triangular faces. 
 Number of faces from materials:  0
 } 

[INFO] Linearization of the OBJ File completed 
[INFO]  Positions size: 4 Normals size: 4 Uvs size: 4
[INFO]  Faces size: 6 which is equivalent to 2 triangles. 
[INFO] Material per faces size = 0 Materials size: 0 Material Strides size: 0
[INFO] Number of normals required: 4
[INFO] Number of normals recomputed:0
 [INFO] COMPUTING INTIAL TANGENTS FROM NORMALS 
[INFO] Checking Normal and Tangent Orthogonality in Mesh.cxx 
 [WARN] 4/4 invalid normals detected and corrected 
 [WARN] 4/4 invalid tangents detected and corrected 
 OBJ Scene 
 { Nb vertices: 258 Nb Normals: 98 Nb Texture Coordinates: 0 Nb Materials: 0 Number of named objects: 1 Number of faces: 512
 The scene has 0 non-triangular faces. 
 Number of faces from materials:  0
 } 

 OBJ Scene 
 { Nb vertices: 258 Nb Normals: 98 Nb Texture Coordinates: 0 Nb Materials: 0 Number of named objects: 1 Number of faces: 512
 The scene has 0 non-triangular faces. 
 Number of faces from materials:  0
 } 

[INFO] Linearization of the OBJ File completed 
[INFO]  Positions size: 258 Normals size: 258 Uvs size: 258
[INFO]  Faces size: 1536 which is equivalent to 512 triangles. 
[INFO] Material per faces size = 0 Materials size: 0 Material Strides size: 0
[INFO] Number of normals required: 258
[INFO] Number of normals recomputed:0
 [INFO] COMPUTING INTIAL TANGENTS FROM NORMALS 
[INFO] Checking Normal and Tangent Orthogonality in Mesh.cxx 
 [WARN] 144/258 invalid normals detected and corrected 
 [WARN] 132/258 invalid tangents detected and corrected 
 OBJ Scene 
 { Nb vertices: 2704 Nb Normals: 2704 Nb Texture Coordinates: 0 Nb Materials: 0 Number of named objects: 1 Number of faces: 5202
 The scene has 0 non-triangular faces. 
 Number of faces from materials:  0
 } 

 OBJ Scene 
 { Nb vertices: 2704 Nb Normals: 2704 Nb Texture Coordinates: 0 Nb Materials: 0 Number of named objects: 1 Number of faces: 5202
 The scene has 0 non-triangular faces. 
 Number of faces from materials:  0
 } 

[INFO] Linearization of the OBJ File completed 
[INFO]  Positions size: 2704 Normals size: 2704 Uvs size: 2704
[INFO]  Faces size: 15606 which is equivalent to 5202 triangles. 
[INFO] Material per faces size = 0 Materials size: 0 Material Strides size: 0
[INFO] Number of normals required: 2704
[INFO] Number of normals recomputed:0
 [INFO] COMPUTING INTIAL TANGENTS FROM NORMALS 
[INFO] Checking Normal and Tangent Orthogonality in Mesh.cxx 
 [WARN] 2150/2704 invalid normals detected and corrected 
 [WARN] 1450/2704 invalid tangents detected and corrected 
 OBJ Scene 
 { Nb vertices: 4 Nb Normals: 1 Nb Texture Coordinates: 0 Nb Materials: 0 Number of named objects: 1 Number of faces: 2
 The scene has 0 non-triangular faces. 
 Number of faces from materials:  0
 } 

 OBJ Scene 
 { Nb vertices: 4 Nb Normals: 1 Nb Texture Coordinates: 0 Nb Materials: 0 Number of named objects: 1 Number of faces: 2
 The scene has 0 non-triangular faces. 
 Number of faces from materials:  0
 } 

[INFO] Linearization of the OBJ File completed 
[INFO]  Positions size: 4 Normals size: 4 Uvs size: 4
[INFO]  Faces size: 6 which is equivalent to 2 triangles. 
[INFO] Material per faces size = 0 Materials size: 0 Material Strides size: 0
[INFO] Number of normals required: 4
[INFO] Number of normals recomputed:0
 [INFO] COMPUTING INTIAL TANGENTS FROM NORMALS 
[INFO] Checking Normal and Tangent Orthogonality in Mesh.cxx 
 OBJ Scene 
 { Nb vertices: 0 Nb Normals: 0 Nb Texture Coordinates: 0 Nb Materials: 0 Number of named objects: 0 Number of faces: 0
 The scene has 0 non-triangular faces. 
 Number of faces from materials:  0
 } 

 OBJ Scene 
 { Nb vertices: 0 Nb Normals: 0 Nb Texture Coordinates: 0 Nb Materials: 0 Number of named objects: 0 Number of faces: 0
 The scene has 0 non-triangular faces. 
 Number of faces from materials:  0
 } 

[INFO] Linearization of the OBJ File completed 
[INFO]  Positions size: 0 Normals size: 0 Uvs size: 0
[INFO]  Faces size: 0 which is equivalent to 0 triangles. 
[INFO] Material per faces size = 0 Materials size: 0 Material Strides size: 0
[INFO] Number of normals required: 0
[INFO] Number of normals recomputed:0
 [INFO] COMPUTING INTIAL TANGENTS FROM NORMALS 
[INFO] Checking Normal and Tangent Orthogonality in Mesh.cxx 
 OBJ Scene 
 { Nb vertices: 482 Nb Normals: 482 Nb Texture Coordinates: 0 Nb Materials: 0 Number of named objects: 1 Number of faces: 960
 The scene has 0 non-triangular faces. 
 Number of faces from materials:  0
 } 

 OBJ Scene 
 { Nb vertices: 482 Nb Normals: 482 Nb Texture Coordinates: 0 Nb Materials: 0 Number of named objects: 1 Number of faces: 960
 The scene has 0 non-triangular faces. 
 Number of faces from materials:  0
 } 

[INFO] Linearization of the OBJ File completed 
[INFO]  Positions size: 482 Normals size: 482 Uvs size: 482
[INFO]  Faces size: 2880 which is equivalent to 960 triangles. 
[INFO] Material per faces size = 0 Materials size: 0 Material Strides size: 0
[INFO] Number of normals required: 482
[INFO] Number of normals recomputed:0
 [INFO] COMPUTING INTIAL TANGENTS FROM NORMALS 
[INFO] Checking Normal and Tangent Orthogonality in Mesh.cxx 
 [WARN] 339/482 invalid normals detected and corrected 
 [WARN] 384/482 invalid tangents detected and corrected 
 OBJ Scene 
 { Nb vertices: 0 Nb Normals: 0 Nb Texture Coordinates: 0 Nb Materials: 0 Number of named objects: 0 Number of faces: 0
 The scene has 0 non-triangular faces. 
 Number of faces from materials:  0
 } 

 OBJ Scene 
 { Nb vertices: 0 Nb Normals: 0 Nb Texture Coordinates: 0 Nb Materials: 0 Number of named objects: 0 Number of faces: 0
 The scene has 0 non-triangular faces. 
 Number of faces from materials:  0
 } 

[INFO] Linearization of the OBJ File completed 
[INFO]  Positions size: 0 Normals size: 0 Uvs size: 0
[INFO]  Faces size: 0 which is equivalent to 0 triangles. 
[INFO] Material per faces size = 0 Materials size: 0 Material Strides size: 0
[INFO] Number of normals required: 0
[INFO] Number of normals recomputed:0
 [INFO] COMPUTING INTIAL TANGENTS FROM NORMALS 
[INFO] Checking Normal and Tangent Orthogonality in Mesh.cxx 
 OBJ Scene 
 { Nb vertices: 0 Nb Normals: 0 Nb Texture Coordinates: 0 Nb Materials: 0 Number of named objects: 0 Number of faces: 0
 The scene has 0 non-triangular faces. 
 Number of faces from materials:  0
 } 

 OBJ Scene 
 { Nb vertices: 0 Nb Normals: 0 Nb Texture Coordinates: 0 Nb Materials: 0 Number of named objects: 0 Number of faces: 0
 The scene has 0 non-triangular faces. 
 Number of faces from materials:  0
 } 

[INFO] Linearization of the OBJ File completed 
[INFO]  Positions size: 0 Normals size: 0 Uvs size: 0
[INFO]  Faces size: 0 which is equivalent to 0 triangles. 
[INFO] Material per faces size = 0 Materials size: 0 Material Strides size: 0
[INFO] Number of normals required: 0
[INFO] Number of normals recomputed:0
 [INFO] COMPUTING INTIAL TANGENTS FROM NORMALS 
[INFO] Checking Normal and Tangent Orthogonality in Mesh.cxx 
 OBJ Scene 
 { Nb vertices: 0 Nb Normals: 0 Nb Texture Coordinates: 0 Nb Materials: 0 Number of named objects: 0 Number of faces: 0
 The scene has 0 non-triangular faces. 
 Number of faces from materials:  0
 } 

 OBJ Scene 
 { Nb vertices: 0 Nb Normals: 0 Nb Texture Coordinates: 0 Nb Materials: 0 Number of named objects: 0 Number of faces: 0
 The scene has 0 non-triangular faces. 
 Number of faces from materials:  0
 } 

[INFO] Linearization of the OBJ File completed 
[INFO]  Positions size: 0 Normals size: 0 Uvs size: 0
[INFO]  Faces size: 0 which is equivalent to 0 triangles. 
[INFO] Material per faces size = 0 Materials size: 0 Material Strides size: 0
[INFO] Number of normals required: 0
[INFO] Number of normals recomputed:0
 [INFO] COMPUTING INTIAL TANGENTS FROM NORMALS 
[INFO] Checking Normal and Tangent Orthogonality in Mesh.cxx 
 OBJ Scene 
 { Nb vertices: 4 Nb Normals: 1 Nb Texture Coordinates: 0 Nb Materials: 0 Number of named objects: 1 Number of faces: 2
 The scene has 0 non-triangular faces. 
 Number of faces from materials:  0
 } 

 OBJ Scene 
 { Nb vertices: 4 Nb Normals: 1 Nb Texture Coordinates: 0 Nb Materials: 0 Number of named objects: 1 Number of faces: 2
 The scene has 0 non-triangular faces. 
 Number of faces from materials:  0
 } 

[INFO] Linearization of the OBJ File completed 
[INFO]  Positions size: 4 Normals size: 4 Uvs size: 4
[INFO]  Faces size: 6 which is equivalent to 2 triangles. 
[INFO] Material per faces size = 0 Materials size: 0 Material Strides size: 0
[INFO] Number of normals required: 4
[INFO] Number of normals recomputed:0
 [INFO] COMPUTING INTIAL TANGENTS FROM NORMALS 
[INFO] Checking Normal and Tangent Orthogonality in Mesh.cxx 
 ************************ INFO ************************** 
  Time to load scene  :0.130716 seconds 
 ******************************************************** 

 INSIDE /home/adufay/apps/iray renderer/../../mrf/rendering/thin_lens_camera.hpp 201
 _sensor Distance = 0.0362694
 Right Axis =  [ 1; 1.65691e-17; -2.92156e-18 ]   Up =  [ -1.68247e-17; 0.984808; -0.173648 ]   Normalized Optical Axis =  [ 0; -0.173648; -0.984808 ] 
Color background not yet supported in IRAY BACKEND
Option 0 scheduler_mode String = batch
Option 1 min_samples_per_update Uint32 = 1
Option 2 batch_update_interval Float32 = 1e+36
Option 3 interactive_update_interval Float32 = 0.0166667
Option 4 ui_responsiveness Float32 = 0.166667
  1.0   IRAY   rend info : Updating geometry.
  1.0   IRAY   rend info : Using OptiX Prime ray tracing (3.9.2).
  1.0   IRAY   rend info : Importing scene graph.
  1.0   IRAY   rend info : Importing geometry for motion time 0
  1.0   IRAY   rend info : Geometry import (1 object with 6682 triangles, 1 instance yielding 6682 triangles) took 0.000901
  1.0   IRAY   rend info : Updating materials.
  1.0   MATCNV rend info : found 1 textures, 0 lambdas (0 unique)
  1.0   IRAY   rend info : Emitter geometry import (4 light sources with 8 triangles, 1 instance) took 0.00s
  1.0   IRAY   rend info : Updating environment.
  1.0   IRAY   rend info : Updating backplate.
  1.0   IRAY   rend info : Updating lens.
  1.0   IRAY   rend info : Updating lights.
  1.0   IRAY   rend info : Updating object flags.
  1.0   IRAY   rend info : Updating caustic portals.
  1.0   IRAY   rend info : Updating decals.
  1.0   IRAY   rend info : Allocating 1-layer frame buffer
  1.0   IRAY   rend info : Using batch scheduling, caustic sampler disabled
  1.0   IRAY   rend info : Initializing local rendering.
  1.0   IRAY   rend info : CPU: using 30 cores for rendering
  1.0   IRAY   rend info : Rendering with 3 device(s):
  1.0   IRAY   rend info : 	CUDA device 0 (Tesla P100-PCIE-16GB)
  1.0   IRAY   rend info : 	CUDA device 1 (Tesla P100-PCIE-16GB)
  1.0   IRAY   rend info : 	CPU
  1.0   IRAY   rend info : Rendering...
  1.25  IRAY   rend progr: CUDA device 0 (Tesla P100-PCIE-16GB): Processing scene...
  1.2   IRAY   rend stat : Geometry memory consumption: 187.344 KiB (device 0), 0 B (host)
  1.8   IRAY   rend progr: CUDA device 1 (Tesla P100-PCIE-16GB): Processing scene...
  1.23  IRAY   rend stat : Geometry memory consumption: 187.344 KiB (device 1), 0 B (host)
  1.21  IRAY   rend progr: CPU: Processing scene...
  1.11  IRAY   rend info : Using device 0 to build data for host
  1.2   IRAY   rend stat : Texture memory consumption: 0 B for 0 bitmaps (device 0)
  1.2   IRAY   rend info : Importing lights for motion time 0
  1.2   IRAY   rend info : Initializing light hierarchy.
  1.2   IRAY   rend info : Light hierarchy initialization took 0.00s
  1.2   IRAY   rend stat : Lights memory consumption: 3.31641 KiB (device 0)
  1.11  IRAY   rend stat : Native CPU code generated in 9.54e-07s
  1.2   IRAY   rend stat : Material measurement memory consumption: 0 B (GPU)
  1.2   IRAY   rend stat : Materials memory consumption: 28.4414 KiB (GPU)
  1.23  IRAY   rend stat : Texture memory consumption: 0 B for 0 bitmaps (device 1)
  1.23  IRAY   rend stat : Lights memory consumption: 3.31641 KiB (device 1)
  1.21  IRAY   rend info : CPU: Scene processed in 0.021s
  1.21  IRAY   rend info : CPU: Allocated 17.5783 MiB for frame buffer
  1.8   IRAY   rend info : CUDA device 1 (Tesla P100-PCIE-16GB): Scene processed in 0.055s
  1.8   IRAY   rend info : CUDA device 1 (Tesla P100-PCIE-16GB): Allocated 17.5783 MiB for frame buffer
  1.8   IRAY   rend info : CUDA device 1 (Tesla P100-PCIE-16GB): Allocated 1.6875 GiB of work space (2048k active samples in 0.003s)
  1.25  IRAY   rend info : CUDA device 0 (Tesla P100-PCIE-16GB): Scene processed in 0.075s
  1.25  IRAY   rend info : CUDA device 0 (Tesla P100-PCIE-16GB): Allocated 17.5783 MiB for frame buffer
  1.25  IRAY   rend info : CUDA device 0 (Tesla P100-PCIE-16GB): Allocated 1.6875 GiB of work space (2048k active samples in 0.003s)
  1.25  IRAY   rend info : Allocating 1-layer frame buffer
  1.0   IRAY   rend info : Received update to 00001 iterations after 0.340s.
  1.0   IRAY   rend info : Received update to 00002 iterations after 0.418s.
  1.0   IRAY   rend info : Received update to 00003 iterations after 0.431s.
  1.0   IRAY   rend info : Received update to 00004 iterations after 0.596s.
  1.0   IRAY   rend info : Received update to 00006 iterations after 0.638s.
  1.0   IRAY   rend info : Received update to 00010 iterations after 0.906s.
  1.0   IRAY   rend info : Received update to 00012 iterations after 0.923s.
  1.0   IRAY   rend info : Received update to 00014 iterations after 1.162s.
  1.0   IRAY   rend info : Received update to 00018 iterations after 1.193s.
  1.0   IRAY   rend info : Received update to 00024 iterations after 1.588s.
  1.0   IRAY   rend info : Received update to 00032 iterations after 1.643s.
  1.0   IRAY   rend info : Received update to 00033 iterations after 1.666s.
  1.0   IRAY   rend info : Received update to 00034 iterations after 2.173s.
  1.0   IRAY   rend info : Received update to 00041 iterations after 2.260s.
  1.0   IRAY   rend info : Received update to 00048 iterations after 2.269s.
  1.0   IRAY   rend info : Received update to 00053 iterations after 2.628s.
  1.0   IRAY   rend info : Received update to 00058 iterations after 2.923s.
  1.0   IRAY   rend info : Received update to 00069 iterations after 2.972s.
  1.0   IRAY   rend info : Received update to 00071 iterations after 3.220s.
  1.0   IRAY   rend info : Received update to 00076 iterations after 3.251s.
  1.0   IRAY   rend info : Received update to 00080 iterations after 3.375s.
  1.0   IRAY   rend info : Received update to 00082 iterations after 3.586s.
  1.0   IRAY   rend info : Received update to 00085 iterations after 3.616s.
  1.0   IRAY   rend info : Received update to 00086 iterations after 3.732s.
  1.0   IRAY   rend info : Received update to 00088 iterations after 3.755s.
  1.0   IRAY   rend info : Received update to 00090 iterations after 3.780s.
  1.0   IRAY   rend info : Received update to 00092 iterations after 3.909s.
  1.0   IRAY   rend info : Received update to 00094 iterations after 3.962s.
  1.0   IRAY   rend info : Received update to 00096 iterations after 4.058s.
  1.0   IRAY   rend info : Received update to 00098 iterations after 4.126s.
  1.0   IRAY   rend info : Received update to 00099 iterations after 4.136s.
  1.0   IRAY   rend info : Received update to 00100 iterations after 4.250s.
  1.0   IRAY   rend info : Maximum number of samples reached.
  1.0   IRAY   rend info : Rendering...
  1.0   IRAY   rend info : Received update to 00100 iterations after 4.268s.
  1.0   IRAY   rend info : Maximum number of samples reached.
Try to save Image in:clothe_10_3.png
  1.0   IMAGE  io   info : Saving image "clothe_10_3.png", pixel type "Rgba_16", 1280x720x1 pixels, 1 miplevel.
Try to save Image in:clothe_10_3.exr
  1.0   IMAGE  io   info : Saving image "clothe_10_3.exr", pixel type "Color", 1280x720x1 pixels, 1 miplevel.
  1.0   IRAY   rend info : Device statistics:
  1.0   IRAY   rend info : CUDA device 0 (Tesla P100-PCIE-16GB): 	 47 iterations, 0.252s init, 3.931s render
  1.0   IRAY   rend info : CUDA device 1 (Tesla P100-PCIE-16GB): 	 45 iterations, 0.091s init, 4.039s render
  1.0   IRAY   rend info : CPU: 	 8 iterations, 0.028s init, 4.223s render
  1.0   API    db   warn : Transaction is released without being committed or aborted. Automatically aborting.
srun: error: sirocco08: task 0: Segmentation fault (core dumped)
  omp_get_max_threads()*2 = 2
LOAD LIBNEURAY.SO OK 
  0.0   API    misc info : Loaded "/home/adufay/iray/linux-x86-64/lib/libneuray.so"
  0.0   API    misc info : Iray 2017.1, build 296300.2288, 27 Sep 2017, linux-x86-64-gcc4
  0.0   PLUG   plug info : Loaded library "/home/adufay/iray/linux-x86-64/lib/nv_freeimage.so".
  0.0   PLUG   plug info : Loaded library "/home/adufay/iray/linux-x86-64/lib/libiray.so".
  0.0   PLUG   plug info : Loaded library "/home/adufay/iray/linux-x86-64/lib/mi_importer.so".
  0.1   CUDA   rend info : Found 2 CUDA devices.
  0.1   CLUSTR net  info : Networking is switched off.
  1.1   FREIMG img  info : Plugin "fi_bmp" (build 296300.2288, 27 Sep 2017) initialized
  1.1   FREIMG img  info : Plugin "fi_cut" (build 296300.2288, 27 Sep 2017) initialized
  1.1   FREIMG img  info : Plugin "fi_dds" (build 296300.2288, 27 Sep 2017) initialized
  1.1   FREIMG img  info : Plugin "fi_exr" (build 296300.2288, 27 Sep 2017) initialized
  1.1   FREIMG img  info : Plugin "fi_faxg3" (build 296300.2288, 27 Sep 2017) initialized
  1.1   FREIMG img  info : Plugin "fi_gif" (build 296300.2288, 27 Sep 2017) initialized
  1.1   FREIMG img  info : Plugin "fi_hdr" (build 296300.2288, 27 Sep 2017) initialized
  1.1   FREIMG img  info : Plugin "fi_ico" (build 296300.2288, 27 Sep 2017) initialized
  1.1   FREIMG img  info : Plugin "fi_j2k" (build 296300.2288, 27 Sep 2017) initialized
  1.1   FREIMG img  info : Plugin "fi_jng" (build 296300.2288, 27 Sep 2017) initialized
  1.1   FREIMG img  info : Plugin "fi_jp2" (build 296300.2288, 27 Sep 2017) initialized
  1.1   FREIMG img  info : Plugin "fi_jpg" (build 296300.2288, 27 Sep 2017) initialized
  1.1   FREIMG img  info : Plugin "fi_koala" (build 296300.2288, 27 Sep 2017) initialized
  1.1   FREIMG img  info : Plugin "fi_lbm" (build 296300.2288, 27 Sep 2017) initialized
  1.1   FREIMG img  info : Plugin "fi_pbm" (build 296300.2288, 27 Sep 2017) initialized
  1.1   FREIMG img  info : Plugin "fi_pcd" (build 296300.2288, 27 Sep 2017) initialized
  1.1   FREIMG img  info : Plugin "fi_pcx" (build 296300.2288, 27 Sep 2017) initialized
  1.1   FREIMG img  info : Plugin "fi_pfm" (build 296300.2288, 27 Sep 2017) initialized
  1.1   FREIMG img  info : Plugin "fi_pict" (build 296300.2288, 27 Sep 2017) initialized
  1.1   FREIMG img  info : Plugin "fi_png" (build 296300.2288, 27 Sep 2017) initialized
  1.1   FREIMG img  info : Plugin "fi_psd" (build 296300.2288, 27 Sep 2017) initialized
  1.1   FREIMG img  info : Plugin "fi_ras" (build 296300.2288, 27 Sep 2017) initialized
  1.1   FREIMG img  info : Plugin "fi_sgi" (build 296300.2288, 27 Sep 2017) initialized
  1.1   FREIMG img  info : Plugin "fi_targa" (build 296300.2288, 27 Sep 2017) initialized
  1.1   FREIMG img  info : Plugin "fi_tiff" (build 296300.2288, 27 Sep 2017) initialized
  1.1   FREIMG img  info : Plugin "fi_wbmp" (build 296300.2288, 27 Sep 2017) initialized
  1.1   FREIMG img  info : Plugin "fi_xpm" (build 296300.2288, 27 Sep 2017) initialized
  1.1   IRAY   rend info : Your NVIDIA driver supports CUDA version up to 9.0; iray requires CUDA version 9.0; all is good.
  1.1   IRAY   rend info : Using iray plugin version 4.7, build 296300.2288 n, 27 Sep 2017, linux-x86-64-gcc4.
  1.1   IRAY   rend info : CUDA device 0 (Tesla P100-PCIE-16GB): compute capability 6.0, 15.8948 GiB total, 15.6536 GiB available
  1.1   IRAY   rend warn : CUDA device 0 (Tesla P100-PCIE-16GB): ECC is enabled, this affects performance negatively (it is recommended to disable ECC with iray)
  1.1   IRAY   rend info : CUDA device 1 (Tesla P100-PCIE-16GB): compute capability 6.0, 15.8948 GiB total, 15.6536 GiB available
  1.1   IRAY   rend warn : CUDA device 1 (Tesla P100-PCIE-16GB): ECC is enabled, this affects performance negatively (it is recommended to disable ECC with iray)
  1.1   IRAY   rend info : iray photoreal CPU fallback is enabled.
  1.1   IRAY   rend stat : Environment cache size capacity: 5.
  1.1   EIMI   io   info : Plugin ".mi importer" (build 296300.2288, 27 Sep 2017) initialized
  1.0   SCENE  io   info : Loading module "::nvidia::core_definitions" from "/home/adufay/iray/mdl/nvidia/core_definitions.mdl".
  1.0   SCENE  io   info : Loading module "::main" from "/home/adufay/apps/iray renderer/../../mdl/main.mdl".
  1.0   MDLC   comp warn : The file path 'wells6_hd.hdr' is only found via the resource search paths, not via the module search paths. This is deprecated.
  1.0   IMAGE  io   info : Loading image "/home/adufay/apps/iray renderer/../../assets/envmaps/wells6_hd.hdr", pixel type "Rgb_fp", 1000x500x1 pixels, 1 miplevel.
  1.0   SCENE  io   info : Loading module "::mrf_lights" from "/home/adufay/apps/iray renderer/../../mdl/mrf_lights.mdl".
 OBJ Scene 
 { Nb vertices: 0 Nb Normals: 0 Nb Texture Coordinates: 0 Nb Materials: 0 Number of named objects: 0 Number of faces: 0
 The scene has 0 non-triangular faces. 
 Number of faces from materials:  0
 } 

 OBJ Scene 
 { Nb vertices: 0 Nb Normals: 0 Nb Texture Coordinates: 0 Nb Materials: 0 Number of named objects: 0 Number of faces: 0
 The scene has 0 non-triangular faces. 
 Number of faces from materials:  0
 } 

[INFO] Linearization of the OBJ File completed 
[INFO]  Positions size: 0 Normals size: 0 Uvs size: 0
[INFO]  Faces size: 0 which is equivalent to 0 triangles. 
[INFO] Material per faces size = 0 Materials size: 0 Material Strides size: 0
[INFO] Number of normals required: 0
[INFO] Number of normals recomputed:0
 [INFO] COMPUTING INTIAL TANGENTS FROM NORMALS 
[INFO] Checking Normal and Tangent Orthogonality in Mesh.cxx 
 OBJ Scene 
 { Nb vertices: 0 Nb Normals: 0 Nb Texture Coordinates: 0 Nb Materials: 0 Number of named objects: 0 Number of faces: 0
 The scene has 0 non-triangular faces. 
 Number of faces from materials:  0
 } 

 OBJ Scene 
 { Nb vertices: 0 Nb Normals: 0 Nb Texture Coordinates: 0 Nb Materials: 0 Number of named objects: 0 Number of faces: 0
 The scene has 0 non-triangular faces. 
 Number of faces from materials:  0
 } 

[INFO] Linearization of the OBJ File completed 
[INFO]  Positions size: 0 Normals size: 0 Uvs size: 0
[INFO]  Faces size: 0 which is equivalent to 0 triangles. 
[INFO] Material per faces size = 0 Materials size: 0 Material Strides size: 0
[INFO] Number of normals required: 0
[INFO] Number of normals recomputed:0
 [INFO] COMPUTING INTIAL TANGENTS FROM NORMALS 
[INFO] Checking Normal and Tangent Orthogonality in Mesh.cxx 
 OBJ Scene 
 { Nb vertices: 4 Nb Normals: 1 Nb Texture Coordinates: 0 Nb Materials: 0 Number of named objects: 1 Number of faces: 2
 The scene has 0 non-triangular faces. 
 Number of faces from materials:  0
 } 

 OBJ Scene 
 { Nb vertices: 4 Nb Normals: 1 Nb Texture Coordinates: 0 Nb Materials: 0 Number of named objects: 1 Number of faces: 2
 The scene has 0 non-triangular faces. 
 Number of faces from materials:  0
 } 

[INFO] Linearization of the OBJ File completed 
[INFO]  Positions size: 4 Normals size: 4 Uvs size: 4
[INFO]  Faces size: 6 which is equivalent to 2 triangles. 
[INFO] Material per faces size = 0 Materials size: 0 Material Strides size: 0
[INFO] Number of normals required: 4
[INFO] Number of normals recomputed:0
 [INFO] COMPUTING INTIAL TANGENTS FROM NORMALS 
[INFO] Checking Normal and Tangent Orthogonality in Mesh.cxx 
 [WARN] 4/4 invalid normals detected and corrected 
 [WARN] 4/4 invalid tangents detected and corrected 
 OBJ Scene 
 { Nb vertices: 4 Nb Normals: 1 Nb Texture Coordinates: 0 Nb Materials: 0 Number of named objects: 1 Number of faces: 2
 The scene has 0 non-triangular faces. 
 Number of faces from materials:  0
 } 

 OBJ Scene 
 { Nb vertices: 4 Nb Normals: 1 Nb Texture Coordinates: 0 Nb Materials: 0 Number of named objects: 1 Number of faces: 2
 The scene has 0 non-triangular faces. 
 Number of faces from materials:  0
 } 

[INFO] Linearization of the OBJ File completed 
[INFO]  Positions size: 4 Normals size: 4 Uvs size: 4
[INFO]  Faces size: 6 which is equivalent to 2 triangles. 
[INFO] Material per faces size = 0 Materials size: 0 Material Strides size: 0
[INFO] Number of normals required: 4
[INFO] Number of normals recomputed:0
 [INFO] COMPUTING INTIAL TANGENTS FROM NORMALS 
[INFO] Checking Normal and Tangent Orthogonality in Mesh.cxx 
 [WARN] 4/4 invalid normals detected and corrected 
 [WARN] 4/4 invalid tangents detected and corrected 
 OBJ Scene 
 { Nb vertices: 258 Nb Normals: 98 Nb Texture Coordinates: 0 Nb Materials: 0 Number of named objects: 1 Number of faces: 512
 The scene has 0 non-triangular faces. 
 Number of faces from materials:  0
 } 

 OBJ Scene 
 { Nb vertices: 258 Nb Normals: 98 Nb Texture Coordinates: 0 Nb Materials: 0 Number of named objects: 1 Number of faces: 512
 The scene has 0 non-triangular faces. 
 Number of faces from materials:  0
 } 

[INFO] Linearization of the OBJ File completed 
[INFO]  Positions size: 258 Normals size: 258 Uvs size: 258
[INFO]  Faces size: 1536 which is equivalent to 512 triangles. 
[INFO] Material per faces size = 0 Materials size: 0 Material Strides size: 0
[INFO] Number of normals required: 258
[INFO] Number of normals recomputed:0
 [INFO] COMPUTING INTIAL TANGENTS FROM NORMALS 
[INFO] Checking Normal and Tangent Orthogonality in Mesh.cxx 
 [WARN] 144/258 invalid normals detected and corrected 
 [WARN] 132/258 invalid tangents detected and corrected 
 OBJ Scene 
 { Nb vertices: 2704 Nb Normals: 2704 Nb Texture Coordinates: 0 Nb Materials: 0 Number of named objects: 1 Number of faces: 5202
 The scene has 0 non-triangular faces. 
 Number of faces from materials:  0
 } 

 OBJ Scene 
 { Nb vertices: 2704 Nb Normals: 2704 Nb Texture Coordinates: 0 Nb Materials: 0 Number of named objects: 1 Number of faces: 5202
 The scene has 0 non-triangular faces. 
 Number of faces from materials:  0
 } 

[INFO] Linearization of the OBJ File completed 
[INFO]  Positions size: 2704 Normals size: 2704 Uvs size: 2704
[INFO]  Faces size: 15606 which is equivalent to 5202 triangles. 
[INFO] Material per faces size = 0 Materials size: 0 Material Strides size: 0
[INFO] Number of normals required: 2704
[INFO] Number of normals recomputed:0
 [INFO] COMPUTING INTIAL TANGENTS FROM NORMALS 
[INFO] Checking Normal and Tangent Orthogonality in Mesh.cxx 
 [WARN] 2150/2704 invalid normals detected and corrected 
 [WARN] 1450/2704 invalid tangents detected and corrected 
 OBJ Scene 
 { Nb vertices: 4 Nb Normals: 1 Nb Texture Coordinates: 0 Nb Materials: 0 Number of named objects: 1 Number of faces: 2
 The scene has 0 non-triangular faces. 
 Number of faces from materials:  0
 } 

 OBJ Scene 
 { Nb vertices: 4 Nb Normals: 1 Nb Texture Coordinates: 0 Nb Materials: 0 Number of named objects: 1 Number of faces: 2
 The scene has 0 non-triangular faces. 
 Number of faces from materials:  0
 } 

[INFO] Linearization of the OBJ File completed 
[INFO]  Positions size: 4 Normals size: 4 Uvs size: 4
[INFO]  Faces size: 6 which is equivalent to 2 triangles. 
[INFO] Material per faces size = 0 Materials size: 0 Material Strides size: 0
[INFO] Number of normals required: 4
[INFO] Number of normals recomputed:0
 [INFO] COMPUTING INTIAL TANGENTS FROM NORMALS 
[INFO] Checking Normal and Tangent Orthogonality in Mesh.cxx 
 OBJ Scene 
 { Nb vertices: 0 Nb Normals: 0 Nb Texture Coordinates: 0 Nb Materials: 0 Number of named objects: 0 Number of faces: 0
 The scene has 0 non-triangular faces. 
 Number of faces from materials:  0
 } 

 OBJ Scene 
 { Nb vertices: 0 Nb Normals: 0 Nb Texture Coordinates: 0 Nb Materials: 0 Number of named objects: 0 Number of faces: 0
 The scene has 0 non-triangular faces. 
 Number of faces from materials:  0
 } 

[INFO] Linearization of the OBJ File completed 
[INFO]  Positions size: 0 Normals size: 0 Uvs size: 0
[INFO]  Faces size: 0 which is equivalent to 0 triangles. 
[INFO] Material per faces size = 0 Materials size: 0 Material Strides size: 0
[INFO] Number of normals required: 0
[INFO] Number of normals recomputed:0
 [INFO] COMPUTING INTIAL TANGENTS FROM NORMALS 
[INFO] Checking Normal and Tangent Orthogonality in Mesh.cxx 
 OBJ Scene 
 { Nb vertices: 482 Nb Normals: 482 Nb Texture Coordinates: 0 Nb Materials: 0 Number of named objects: 1 Number of faces: 960
 The scene has 0 non-triangular faces. 
 Number of faces from materials:  0
 } 

 OBJ Scene 
 { Nb vertices: 482 Nb Normals: 482 Nb Texture Coordinates: 0 Nb Materials: 0 Number of named objects: 1 Number of faces: 960
 The scene has 0 non-triangular faces. 
 Number of faces from materials:  0
 } 

[INFO] Linearization of the OBJ File completed 
[INFO]  Positions size: 482 Normals size: 482 Uvs size: 482
[INFO]  Faces size: 2880 which is equivalent to 960 triangles. 
[INFO] Material per faces size = 0 Materials size: 0 Material Strides size: 0
[INFO] Number of normals required: 482
[INFO] Number of normals recomputed:0
 [INFO] COMPUTING INTIAL TANGENTS FROM NORMALS 
[INFO] Checking Normal and Tangent Orthogonality in Mesh.cxx 
 [WARN] 339/482 invalid normals detected and corrected 
 [WARN] 384/482 invalid tangents detected and corrected 
 OBJ Scene 
 { Nb vertices: 0 Nb Normals: 0 Nb Texture Coordinates: 0 Nb Materials: 0 Number of named objects: 0 Number of faces: 0
 The scene has 0 non-triangular faces. 
 Number of faces from materials:  0
 } 

 OBJ Scene 
 { Nb vertices: 0 Nb Normals: 0 Nb Texture Coordinates: 0 Nb Materials: 0 Number of named objects: 0 Number of faces: 0
 The scene has 0 non-triangular faces. 
 Number of faces from materials:  0
 } 

[INFO] Linearization of the OBJ File completed 
[INFO]  Positions size: 0 Normals size: 0 Uvs size: 0
[INFO]  Faces size: 0 which is equivalent to 0 triangles. 
[INFO] Material per faces size = 0 Materials size: 0 Material Strides size: 0
[INFO] Number of normals required: 0
[INFO] Number of normals recomputed:0
 [INFO] COMPUTING INTIAL TANGENTS FROM NORMALS 
[INFO] Checking Normal and Tangent Orthogonality in Mesh.cxx 
 OBJ Scene 
 { Nb vertices: 0 Nb Normals: 0 Nb Texture Coordinates: 0 Nb Materials: 0 Number of named objects: 0 Number of faces: 0
 The scene has 0 non-triangular faces. 
 Number of faces from materials:  0
 } 

 OBJ Scene 
 { Nb vertices: 0 Nb Normals: 0 Nb Texture Coordinates: 0 Nb Materials: 0 Number of named objects: 0 Number of faces: 0
 The scene has 0 non-triangular faces. 
 Number of faces from materials:  0
 } 

[INFO] Linearization of the OBJ File completed 
[INFO]  Positions size: 0 Normals size: 0 Uvs size: 0
[INFO]  Faces size: 0 which is equivalent to 0 triangles. 
[INFO] Material per faces size = 0 Materials size: 0 Material Strides size: 0
[INFO] Number of normals required: 0
[INFO] Number of normals recomputed:0
 [INFO] COMPUTING INTIAL TANGENTS FROM NORMALS 
[INFO] Checking Normal and Tangent Orthogonality in Mesh.cxx 
 OBJ Scene 
 { Nb vertices: 0 Nb Normals: 0 Nb Texture Coordinates: 0 Nb Materials: 0 Number of named objects: 0 Number of faces: 0
 The scene has 0 non-triangular faces. 
 Number of faces from materials:  0
 } 

 OBJ Scene 
 { Nb vertices: 0 Nb Normals: 0 Nb Texture Coordinates: 0 Nb Materials: 0 Number of named objects: 0 Number of faces: 0
 The scene has 0 non-triangular faces. 
 Number of faces from materials:  0
 } 

[INFO] Linearization of the OBJ File completed 
[INFO]  Positions size: 0 Normals size: 0 Uvs size: 0
[INFO]  Faces size: 0 which is equivalent to 0 triangles. 
[INFO] Material per faces size = 0 Materials size: 0 Material Strides size: 0
[INFO] Number of normals required: 0
[INFO] Number of normals recomputed:0
 [INFO] COMPUTING INTIAL TANGENTS FROM NORMALS 
[INFO] Checking Normal and Tangent Orthogonality in Mesh.cxx 
 OBJ Scene 
 { Nb vertices: 4 Nb Normals: 1 Nb Texture Coordinates: 0 Nb Materials: 0 Number of named objects: 1 Number of faces: 2
 The scene has 0 non-triangular faces. 
 Number of faces from materials:  0
 } 

 OBJ Scene 
 { Nb vertices: 4 Nb Normals: 1 Nb Texture Coordinates: 0 Nb Materials: 0 Number of named objects: 1 Number of faces: 2
 The scene has 0 non-triangular faces. 
 Number of faces from materials:  0
 } 

[INFO] Linearization of the OBJ File completed 
[INFO]  Positions size: 4 Normals size: 4 Uvs size: 4
[INFO]  Faces size: 6 which is equivalent to 2 triangles. 
[INFO] Material per faces size = 0 Materials size: 0 Material Strides size: 0
[INFO] Number of normals required: 4
[INFO] Number of normals recomputed:0
 [INFO] COMPUTING INTIAL TANGENTS FROM NORMALS 
[INFO] Checking Normal and Tangent Orthogonality in Mesh.cxx 
 ************************ INFO ************************** 
  Time to load scene  :0.131467 seconds 
 ******************************************************** 

 INSIDE /home/adufay/apps/iray renderer/../../mrf/rendering/thin_lens_camera.hpp 201
 _sensor Distance = 0.0362694
 Right Axis =  [ 1; 1.65691e-17; -2.92156e-18 ]   Up =  [ -1.68247e-17; 0.984808; -0.173648 ]   Normalized Optical Axis =  [ 0; -0.173648; -0.984808 ] 
Color background not yet supported in IRAY BACKEND
Option 0 scheduler_mode String = batch
Option 1 min_samples_per_update Uint32 = 1
Option 2 batch_update_interval Float32 = 1e+36
Option 3 interactive_update_interval Float32 = 0.0166667
Option 4 ui_responsiveness Float32 = 0.166667
  1.0   IRAY   rend info : Updating geometry.
  1.0   IRAY   rend info : Using OptiX Prime ray tracing (3.9.2).
  1.0   IRAY   rend info : Importing scene graph.
  1.0   IRAY   rend info : Importing geometry for motion time 0
  1.0   IRAY   rend info : Geometry import (1 object with 6682 triangles, 1 instance yielding 6682 triangles) took 0.000856
  1.0   IRAY   rend info : Updating materials.
  1.0   MATCNV rend info : found 1 textures, 0 lambdas (0 unique)
  1.0   IRAY   rend info : Emitter geometry import (4 light sources with 8 triangles, 1 instance) took 0.00s
  1.0   IRAY   rend info : Updating environment.
  1.0   IRAY   rend info : Updating backplate.
  1.0   IRAY   rend info : Updating lens.
  1.0   IRAY   rend info : Updating lights.
  1.0   IRAY   rend info : Updating object flags.
  1.0   IRAY   rend info : Updating caustic portals.
  1.0   IRAY   rend info : Updating decals.
  1.0   IRAY   rend info : Allocating 1-layer frame buffer
  1.0   IRAY   rend info : Using batch scheduling, caustic sampler disabled
  1.0   IRAY   rend info : Initializing local rendering.
  1.0   IRAY   rend info : CPU: using 30 cores for rendering
  1.0   IRAY   rend info : Rendering with 3 device(s):
  1.0   IRAY   rend info : 	CUDA device 0 (Tesla P100-PCIE-16GB)
  1.0   IRAY   rend info : 	CUDA device 1 (Tesla P100-PCIE-16GB)
  1.0   IRAY   rend info : 	CPU
  1.0   IRAY   rend info : Rendering...
  1.20  IRAY   rend progr: CUDA device 0 (Tesla P100-PCIE-16GB): Processing scene...
  1.14  IRAY   rend stat : Geometry memory consumption: 187.344 KiB (device 0), 0 B (host)
  1.14  IRAY   rend stat : Texture memory consumption: 0 B for 0 bitmaps (device 0)
  1.14  IRAY   rend info : Importing lights for motion time 0
  1.14  IRAY   rend info : Initializing light hierarchy.
  1.11  IRAY   rend progr: CUDA device 1 (Tesla P100-PCIE-16GB): Processing scene...
  1.22  IRAY   rend stat : Geometry memory consumption: 187.344 KiB (device 1), 0 B (host)
  1.14  IRAY   rend info : Light hierarchy initialization took 0.00s
  1.3   IRAY   rend progr: CPU: Processing scene...
  1.18  IRAY   rend info : Using device 0 to build data for host
  1.14  IRAY   rend stat : Lights memory consumption: 3.31641 KiB (device 0)
  1.14  IRAY   rend stat : Material measurement memory consumption: 0 B (GPU)
  1.18  IRAY   rend stat : Native CPU code generated in 1.91e-06s
  1.14  IRAY   rend stat : Materials memory consumption: 28.4414 KiB (GPU)
  1.22  IRAY   rend stat : Texture memory consumption: 0 B for 0 bitmaps (device 1)
  1.22  IRAY   rend stat : Lights memory consumption: 3.31641 KiB (device 1)
  1.3   IRAY   rend info : CPU: Scene processed in 0.017s
  1.3   IRAY   rend info : CPU: Allocated 17.5783 MiB for frame buffer
  1.11  IRAY   rend info : CUDA device 1 (Tesla P100-PCIE-16GB): Scene processed in 0.167s
  1.11  IRAY   rend info : CUDA device 1 (Tesla P100-PCIE-16GB): Allocated 17.5783 MiB for frame buffer
  1.11  IRAY   rend info : CUDA device 1 (Tesla P100-PCIE-16GB): Allocated 1.6875 GiB of work space (2048k active samples in 0.003s)
  1.20  IRAY   rend info : CUDA device 0 (Tesla P100-PCIE-16GB): Scene processed in 0.188s
  1.20  IRAY   rend info : CUDA device 0 (Tesla P100-PCIE-16GB): Allocated 17.5783 MiB for frame buffer
  1.20  IRAY   rend info : CUDA device 0 (Tesla P100-PCIE-16GB): Allocated 1.6875 GiB of work space (2048k active samples in 0.009s)
  1.11  IRAY   rend info : Allocating 1-layer frame buffer
  1.0   IRAY   rend info : Received update to 00001 iterations after 0.387s.
  1.0   IRAY   rend info : Received update to 00002 iterations after 0.395s.
  1.0   IRAY   rend info : Received update to 00003 iterations after 0.437s.
  1.0   IRAY   rend info : Received update to 00004 iterations after 0.484s.
  1.0   IRAY   rend info : Received update to 00005 iterations after 0.625s.
  1.0   IRAY   rend info : Received update to 00009 iterations after 0.655s.
  1.0   IRAY   rend info : Received update to 00013 iterations after 0.901s.
  1.0   IRAY   rend info : Received update to 00025 iterations after 1.408s.
  1.0   IRAY   rend info : Received update to 00033 iterations after 1.695s.
  1.0   IRAY   rend info : Received update to 00036 iterations after 2.165s.
  1.0   IRAY   rend info : Received update to 00052 iterations after 2.444s.
  1.0   IRAY   rend info : Received update to 00068 iterations after 2.909s.
  1.0   IRAY   rend info : Received update to 00072 iterations after 4.168s.
  1.0   IRAY   rend info : Received update to 00104 iterations after 4.853s.
  1.0   IRAY   rend info : Received update to 00136 iterations after 5.283s.
  1.0   IRAY   rend info : Received update to 00144 iterations after 8.235s.
  1.0   IRAY   rend info : Received update to 00208 iterations after 8.725s.
  1.0   IRAY   rend info : Received update to 00272 iterations after 10.022s.
  1.0   IRAY   rend info : Received update to 00283 iterations after 13.817s.
  1.0   IRAY   rend info : Received update to 00369 iterations after 14.301s.
  1.0   IRAY   rend info : Received update to 00437 iterations after 14.649s.
  1.0   IRAY   rend info : Received update to 00493 iterations after 17.957s.
  1.0   IRAY   rend info : Received update to 00502 iterations after 18.413s.
  1.0   IRAY   rend info : Received update to 00574 iterations after 19.274s.
  1.0   IRAY   rend info : Received update to 00580 iterations after 21.514s.
  1.0   IRAY   rend info : Received update to 00627 iterations after 21.952s.
  1.0   IRAY   rend info : Received update to 00681 iterations after 21.993s.
  1.0   IRAY   rend info : Received update to 00686 iterations after 24.054s.
  1.0   IRAY   rend info : Received update to 00728 iterations after 24.480s.
  1.0   IRAY   rend info : Received update to 00761 iterations after 24.507s.
  1.0   IRAY   rend info : Received update to 00764 iterations after 25.602s.
  1.0   IRAY   rend info : Received update to 00787 iterations after 26.050s.
  1.0   IRAY   rend info : Received update to 00789 iterations after 26.620s.
  1.0   IRAY   rend info : Received update to 00821 iterations after 26.922s.
  1.0   IRAY   rend info : Received update to 00842 iterations after 27.558s.
  1.0   IRAY   rend info : Received update to 00844 iterations after 27.670s.
  1.0   IRAY   rend info : Received update to 00845 iterations after 28.205s.
  1.0   IRAY   rend info : Received update to 00864 iterations after 28.398s.
  1.0   IRAY   rend info : Received update to 00880 iterations after 28.503s.
  1.0   IRAY   rend info : Received update to 00881 iterations after 28.714s.
  1.0   IRAY   rend info : Received update to 00894 iterations after 29.152s.
  1.0   IRAY   rend info : Received update to 00895 iterations after 29.259s.
  1.0   IRAY   rend info : Received update to 00910 iterations after 29.366s.
  1.0   IRAY   rend info : Received update to 00911 iterations after 29.780s.
  1.0   IRAY   rend info : Received update to 00912 iterations after 30.325s.
  1.0   IRAY   rend info : Received update to 00927 iterations after 30.343s.
  1.0   IRAY   rend info : Received update to 00943 iterations after 30.356s.
  1.0   IRAY   rend info : Received update to 00944 iterations after 30.845s.
  1.0   IRAY   rend info : Received update to 00957 iterations after 31.187s.
  1.0   IRAY   rend info : Received update to 00958 iterations after 31.384s.
  1.0   IRAY   rend info : Received update to 00974 iterations after 31.542s.
  1.0   IRAY   rend info : Received update to 00975 iterations after 31.897s.
  1.0   IRAY   rend info : Received update to 00989 iterations after 32.038s.
  1.0   IRAY   rend info : Received update to 01000 iterations after 32.297s.
  1.0   IRAY   rend info : Maximum number of samples reached.
  1.0   IRAY   rend info : Rendering...
  1.0   IRAY   rend info : Received update to 01000 iterations after 32.309s.
  1.0   IRAY   rend info : Maximum number of samples reached.
Try to save Image in:clothe_10_3.png
  1.0   IMAGE  io   info : Saving image "clothe_10_3.png", pixel type "Rgba_16", 1280x720x1 pixels, 1 miplevel.
Try to save Image in:clothe_10_3.exr
  1.0   IMAGE  io   info : Saving image "clothe_10_3.exr", pixel type "Color", 1280x720x1 pixels, 1 miplevel.
  1.0   IRAY   rend info : Device statistics:
  1.0   IRAY   rend info : CUDA device 0 (Tesla P100-PCIE-16GB): 	 481 iterations, 0.287s init, 31.797s render
  1.0   IRAY   rend info : CUDA device 1 (Tesla P100-PCIE-16GB): 	 457 iterations, 0.233s init, 32.070s render
  1.0   IRAY   rend info : CPU: 	 62 iterations, 0.027s init, 31.867s render
  1.0   API    db   warn : Transaction is released without being committed or aborted. Automatically aborting.
srun: error: sirocco08: task 0: Segmentation fault (core dumped)
